<?xml version="1.0" encoding="UTF-8" standalone="no"?>
<svg
   viewBox="0 0 3250 3000"
   width="650"
   height="600"
   role="img"
   id="france"
   aria-label="Carte de France vectorielle, départements et régions groupés par code INSEE"
   version="1.1"
   sodipodi:docname="ile-de-france.svg"
   xml:space="preserve"
   inkscape:version="1.3.2 (091e20e, 2023-11-25)"
   xmlns:inkscape="http://www.inkscape.org/namespaces/inkscape"
   xmlns:sodipodi="http://sodipodi.sourceforge.net/DTD/sodipodi-0.dtd"
   xmlns="http://www.w3.org/2000/svg"
   xmlns:svg="http://www.w3.org/2000/svg"><sodipodi:namedview
     id="namedview1"
     pagecolor="#ffffff"
     bordercolor="#000000"
     borderopacity="0.25"
     inkscape:showpageshadow="2"
     inkscape:pageopacity="0.0"
     inkscape:pagecheckerboard="0"
     inkscape:deskcolor="#d1d1d1"
     inkscape:zoom="0.55048947"
     inkscape:cx="572.21804"
     inkscape:cy="468.67382"
     inkscape:window-width="1440"
     inkscape:window-height="755"
     inkscape:window-x="0"
     inkscape:window-y="25"
     inkscape:window-maximized="0"
     inkscape:current-layer="france" /><defs
     id="defs1"><style
       type="text/css"
       id="style1">svg#france {color-scheme: dark light;}#france path {stroke-width:
      1;stroke: #000;}@media (prefers-color-scheme: dark) {#france path {stroke: #fff;}}/*Si gestion
      de mode contrasté*/:root[class*=&quot;contrast&quot;] #france path {stroke-width: 3;}#INSEE-01 { /*
      GUADELOUPE */fill: #32B540;}#INSEE-02 { /* MARTINIQUE */fill: #E78B00;}#INSEE-03 { /* GUYANE
      */fill: #89B157;}#INSEE-04 { /* LA REUNION */fill: #E06809;}#INSEE-06 { /* MAYOTTE */fill:
      #E62D29;}#INSEE-75 { /* NOUVELLE AQUITAINE */fill: #D69FBA;}#INSEE-11 { /* ILE DE FRANCE
      */fill: #CD868E;}#INSEE-24 { /* CENTRE VAL DE LOIRE */fill: #73CBD4;}#INSEE-27 { /* BOURGOGNE
      FRANCHE COMTE */fill: #9386BC;}#INSEE-28 { /* NORMANDIE */fill: #C3BB64;}#INSEE-32 { /* HAUTS
      DE FRANCE */fill: #48BBA9;}#INSEE-44 { /* GRAND EST */fill: #E9A07E;}#INSEE-52 { /* PAYS DE LA
      LOIRE */fill: #92CDAF;}#INSEE-53 { /* BRETAGNE */fill: #68B1C2;}#INSEE-76 { /* OCCITANIE
      */fill: #9FA0BF;}#INSEE-84 { /* AUVERGNE RHONE ALPES */fill: #A8D28E;}#INSEE-93 { /* PROVENCE
      ALPES COTE D AZUR */fill: #F8C478;}#INSEE-94 { /* CORSE */fill: #9DDAEC;}@media (any-pointer:
      fine) {@media (prefers-contrast: no-preference) {#france path {opacity: .9;}}@media
      (prefers-contrast: more) {#france path {opacity: .7;}}@media (prefers-reduced-motion:
      no-preference) {#france path {transition: all .3s;}}#france g path {cursor: pointer;}#france
      g:hover path {opacity: 1;}#france g:hover path:hover {fill: black;stroke: transparent;}@media
      (prefers-color-scheme: dark) {#france g:hover path:hover {fill: white;stroke:
      transparent;}}}#france g:focus-within path {opacity: 1;}#france g path:focus {fill:
      black;stroke: #000;}@media (prefers-color-scheme: dark) {#france g path:focus {fill:
      white;stroke: #fff;}}</style></defs><g
     id="INSEE-11"
     transform="matrix(15.055777,0,0,15.055777,-15250.167,178.07088)"><title
       id="title1">Région Île-de-France</title><g
       id="PETITE-COURONNE"><path
         id="dpt-93"
         d="m 1149.2,19.18 -16.85,10.69 -26.22,10.69 -47.75,2.93 1.46,5.86 3.96,0.73 3.66,5.13 -3.66,7.18 -4.83,0.73 3.37,7.47 23,-0.29 7.47,10.25 1.46,14.36 7.91,-1.03 7.47,-5.42 11.13,0.44 13.92,7.18 7.91,7.91 3.66,1.46 2.34,3.81 8.79,2.05 v -23 l -10.55,-56.25 2.34,-12.89 z" /><path
         id="dpt-75"
         d="m 1085.48,70.45 -23,0.29 -10.25,4.1 -4.25,5.13 -9.37,0.44 -8.5,8.64 0.29,4.83 2.05,5.57 14.21,3.52 17.43,7.91 11.13,0.44 7.47,-1.76 7.62,-4.83 2.49,2.05 16.55,2.05 2.78,-5.42 v -5.42 l -2.78,-1.03 -11.43,0.44 0.88,2.49 -2.05,1.46 h -3.66 l 1.46,-3.37 0.59,-3.52 h -0.59 l -1.46,-14.36 -7.62,-9.67 z" /><path
         id="dpt-92"
         d="m 1058.38,43.5 -31.93,15.38 -3.37,0.44 -15.67,30.76 9.96,24.32 15.97,16.11 v 1.76 l 24.76,15.67 6.01,-2.78 -4.54,-7.62 4.54,-12.01 -2.78,-4.39 3.08,-9.96 h -0.59 l -17.43,-7.91 -14.21,-3.52 -2.05,-5.57 -0.29,-4.83 8.5,-8.64 9.37,-0.44 4.25,-5.13 10.25,-4.1 -3.37,-7.47 4.83,-0.73 3.66,-7.18 -3.66,-5.13 -3.96,-0.73 -1.32,-6.3 z" /><path
         id="dpt-94"
         d="m 1109.65,88.61 -7.47,5.42 -7.47,1.03 -0.59,3.52 -1.46,3.37 h 3.66 l 2.05,-1.46 -0.88,-2.49 11.43,-0.44 2.78,1.03 v 5.42 l -2.78,5.42 -16.41,-2.49 -2.49,-2.05 -7.62,4.83 -7.47,1.76 -10.55,-0.44 -3.08,9.96 2.78,4.39 -4.54,12.01 4.54,7.62 7.91,-3.52 19.04,9.52 h 32.96 l 19.63,8.2 -0.29,-1.76 13.92,-31.49 v -14.36 l -8.79,-2.05 -2.34,-3.81 -3.66,-1.46 -7.91,-7.91 -13.92,-7.18 -10.99,-0.59 z" /></g></g></svg>
